Beach Volleyball
…
#tuesdata <- tidytuesdayR::tt_load('2020-05-19')
#tuesdata <- tidytuesdayR::tt_load(2020, week = 21)

#vb_matches <- tuesdata$vb_matches

#tuesdata <- tidytuesdayR::tt_load('2020-05-19')

vb_matches <- vb_matches %>%
  mutate(match_id = row_number())

vb_matches %>%
  count(circuit, tournament, date, sort = TRUE)

## # A tibble: 703 x 4
##    circuit tournament       date           n
##    <chr>   <chr>            <date>     <int>
##  1 AVP     Manhattan Beach  2009-07-16   357
##  2 AVP     Manhattan Beach  2019-08-15   292
##  3 AVP     Manhattan Beach  2017-08-17   279
##  4 AVP     Manhattan Beach  2006-08-10   278
##  5 AVP     Hermosa Beach    2006-06-09   273
##  6 AVP     Manhattan Beach  2018-08-16   269
##  7 AVP     Huntington Beach 2010-06-03   268
##  8 AVP     Hermosa Beach    2010-07-16   267
##  9 AVP     Manhattan Beach  2007-08-09   267
## 10 AVP     Hermosa Beach    2019-07-25   263
## # ... with 693 more rows
…
by_player %>%
  filter(n_matches >= 200) %>%
  arrange(desc(pct_winner))

## # A tibble: 418 x 6
##    name                 gender n_matches pct_winner first_game last_game 
##    <chr>                <chr>      <int>      <dbl> <date>     <date>    
##  1 Misty May-Treanor    W            963      0.902 2000-09-16 2016-04-14
##  2 Kerri Walsh Jennings W           1347      0.876 2001-06-13 2019-08-14
##  3 Larissa Franca       W            835      0.838 2003-06-11 2017-08-23
##  4 Juliana Felisberta   W            852      0.793 2003-09-18 2019-08-08
##  5 Phil Dalhausser      M           1347      0.792 2003-07-25 2019-08-29
##  6 Adriana Behar        W            447      0.785 2000-09-16 2007-09-25
##  7 Elaine Youngs        W            971      0.785 2001-04-04 2010-07-24
##  8 Shelda Bede          W            545      0.782 2000-09-16 2009-09-08
##  9 Emanuel Rego         M            965      0.781 2000-09-16 2016-03-08
## 10 April Ross           W           1233      0.768 2006-05-05 2019-08-29
## # ... with 408 more rows

vb_player_matches %>%
  summarize_all(~ mean(!is.na(.))) %>%
  gather() %>%
  View()

vb_player_matches %>%
  group_by(tournament) %>%
  summarize(pct_has_attacks = mean(!is.na(tot_attacks)),
            n = n()) %>%
  arrange(desc(n))

## # A tibble: 177 x 3
##    tournament       pct_has_attacks     n
##    <chr>                      <dbl> <int>
##  1 Gstaad                    0      15064
##  2 Manhattan Beach           0.485  14024
##  3 Huntington Beach          0.448  11868
##  4 Hermosa Beach             0.406  10940
##  5 Klagenfurt                0      10432
##  6 Stavanger                 0.0780 10204
##  7 Chicago                   0.497   9236
##  8 Moscow                    0       8308
##  9 Shanghai                  0       7548
## 10 Berlin                    0       7200
## # ... with 167 more rows
…
